<?xml version="1.0" standalone="no"?>
<!DOCTYPE svg PUBLIC "-//W3C//DTD SVG 1.1//EN" "http://www.w3.org/Graphics/SVG/1.1/DTD/svg11.dtd">
<svg xmlns="http://www.w3.org/2000/svg">
<metadata>Copyright (C) 2020 by original authors @ fontello.com</metadata>
<defs>
<font id="fontello" horiz-adv-x="1000" >
<font-face font-family="fontello" font-weight="400" font-stretch="normal" units-per-em="1000" ascent="850" descent="-150" />
<missing-glyph horiz-adv-x="1000" />
<glyph glyph-name="back" unicode="&#xe800;" d="M750 540q40 0 70-29t30-71l0-290q0-40-30-70t-70-30l-690 0 0 140 650 0 0 210-500 0 0-110-210 180 210 180 0-110 540 0z" horiz-adv-x="850" />

<glyph glyph-name="menu" unicode="&#xf0c9;" d="M857 100v-71q0-15-10-25t-26-11h-785q-15 0-25 11t-11 25v71q0 15 11 25t25 11h785q15 0 26-11t10-25z m0 286v-72q0-14-10-25t-26-10h-785q-15 0-25 10t-11 25v72q0 14 11 25t25 10h785q15 0 26-10t10-25z m0 285v-71q0-14-10-25t-26-11h-785q-15 0-25 11t-11 25v71q0 15 11 26t25 10h785q15 0 26-10t10-26z" horiz-adv-x="857.1" />

<glyph glyph-name="food" unicode="&#xf0f5;" d="M357 814v-357q0-34-20-62t-51-39v-435q0-29-21-50t-51-21h-71q-29 0-50 21t-22 50v435q-31 11-51 39t-20 62v357q0 15 11 25t25 11 25-11 10-25v-232q0-14 11-25t25-11 25 11 11 25v232q0 15 11 25t25 11 25-11 10-25v-232q0-14 11-25t25-11 25 11 11 25v232q0 15 10 25t25 11 26-11 10-25z m429 0v-893q0-29-21-50t-51-21h-71q-29 0-50 21t-22 50v286h-125q-7 0-12 5t-5 13v446q0 74 52 127t126 52h143q15 0 25-11t11-25z" horiz-adv-x="785.7" />

<glyph glyph-name="cc-visa" unicode="&#xf1f0;" d="M1102 298h-77q8 20 37 99l2 6q2 5 5 14t5 15l7-31z m-806 36l-32 164q-6 31-42 31h-149l-2-8q174-44 225-187z m100 195l-90-245-10 50q-14 39-47 72t-73 50l75-285h98l145 358h-98z m78-359h92l58 359h-92z m428 350q-38 15-83 15-68 0-112-33t-44-86q-1-56 81-97 27-12 37-23t11-21q0-17-17-26t-38-9q-48 0-87 19l-13 6-13-81q42-19 104-19 72 0 116 33t45 90q0 59-78 97-27 14-40 23t-12 21q0 13 14 22t39 9q39 1 69-13l9-5z m238 9h-72q-36 0-48-31l-138-328h97l20 54h118q3-12 11-54h86z m146 178v-714q0-29-21-50t-51-22h-1143q-29 0-50 22t-21 50v714q0 29 21 50t50 22h1143q29 0 51-22t21-50z" horiz-adv-x="1285.7" />

<glyph glyph-name="motorcycle" unicode="&#xf21c;" d="M1284 272q7-58-12-111t-55-91-89-59-110-18q-89 7-156 70t-75 153q-6 62 16 118t66 95l-40 59q-53-44-84-108t-31-136q0-15-10-26t-25-11h-182q-13-91-83-153t-164-61q-103 0-177 73t-73 177 73 177 177 73q42 0 85-15l13 25q-68 61-169 61h-36q-15 0-25 11t-11 25 11 25 25 11h71q44 0 81-8t65-21 40-22 29-21h350l-48 72h-124q-17 0-27 12t-8 30q2 12 13 21t24 8h141q18 0 30-15l39-59 63 64q11 10 26 10h56q15 0 25-10t11-26v-71q0-14-11-25t-25-11h-100l65-96q73 36 153 20 80-14 136-75t66-141z m-1034-208q64 0 113 41t62 102h-175q-19 0-31 17-10 18 0 36l82 154q-26 7-51 7-74 0-126-52t-53-126 53-126 126-53z m786 0q73 0 126 53t52 126-52 126-126 52q-34 0-68-13l97-145q9-13 6-27t-15-23q-9-6-20-6-20 0-30 16l-97 145q-52-53-52-125 0-74 53-126t126-53z" horiz-adv-x="1285.7" />

<glyph glyph-name="odnoklassniki" unicode="&#xf263;" d="M357 344q-105 0-179 74t-74 179q0 105 74 179t179 74 179-74 75-179q0-105-75-179t-179-74z m0 378q-51 0-88-37t-36-88q0-52 36-88t88-37 88 37 37 88q0 52-37 88t-88 37z m292-409q7-15 8-27t-2-23-15-21-24-21-34-23q-64-41-176-53l41-40 149-149q17-17 17-41t-17-41l-7-7q-17-17-41-17t-41 17q-38 38-149 149l-149-149q-18-17-42-17t-40 17l-7 7q-17 17-17 41t17 41l149 149 40 40q-113 12-177 53-21 14-34 23t-24 21-15 21-2 23 8 27q6 11 16 20t23 12 32-1 36-20q3-2 8-6t24-13 39-17 51-14 63-6q51 0 97 14t67 28l21 14q19 15 37 20t31 1 23-12 16-20z" horiz-adv-x="714.3" />
</font>
</defs>
</svg>